<?xml version="1.0" encoding="utf-8"?>
<!-- Generator: Adobe Illustrator 16.0.0, SVG Export Plug-In . SVG Version: 6.00 Build 0)  -->
<!DOCTYPE svg PUBLIC "-//W3C//DTD SVG 1.0//EN" "http://www.w3.org/TR/2001/REC-SVG-20010904/DTD/svg10.dtd">
<svg version="1.0" id="Layer_1_xA0_Image_1_" xmlns="http://www.w3.org/2000/svg" xmlns:xlink="http://www.w3.org/1999/xlink"
	 x="0px" y="0px" width="13.746px" height="49.984px" viewBox="0 0 13.746 49.984" enable-background="new 0 0 13.746 49.984"
	 xml:space="preserve">
<path fill-rule="evenodd" clip-rule="evenodd" d="M0.065,28.303c-0.014-0.031-0.032-0.059-0.041-0.095
	C0.022,28.2,0.023,28.19,0.021,28.183C0.009,28.124,0,28.06,0,27.985c0.015-1.941-0.004-3.883,0.023-5.824
	c0.003-0.211,0.176-0.494,0.356-0.616c0.475-0.323,0.96-0.631,1.45-0.931c0.288-0.177,0.576-0.354,0.87-0.519
	c0.217-0.122,0.366-0.25,0.462-0.412c0.095-0.163,0.135-0.358,0.133-0.615c-0.008-0.972-0.008-1.943-0.011-2.915
	c-0.009-2.53-0.008-5.062,0.002-7.594c0.005-0.566,0.053-1.143,0.162-1.7C4.291,2.565,8.09-0.653,13.713,0.113v5.589
	c-0.001,0-0.001,0-0.001,0c0,0,0,0,0,0.001c-0.18,0.009-0.328,0.021-0.477,0.023c-0.4,0.003-0.8,0-1.2,0.001
	c-0.255,0-0.492,0.024-0.719,0.064c-0.664,0.118-1.197,0.405-1.586,0.834c-0.22,0.244-0.399,0.528-0.52,0.861
	C9.079,7.853,9.009,8.27,9.009,8.735c-0.005,1.826,0,3.654,0,5.481c0,1.828-0.004,3.655,0.002,5.482
	c0,0.088-0.006,0.169-0.019,0.246c-0.039,0.248-0.15,0.444-0.383,0.626c-0.756,0.592-1.494,1.2-2.233,1.809
	c-0.23,0.19-0.46,0.38-0.691,0.569c-0.144,0.118-0.288,0.236-0.432,0.354c-0.679,0.558-1.358,1.117-2.061,1.69
	c0.079,0.071,0.146,0.133,0.209,0.19c0.057,0.05,0.109,0.097,0.166,0.139c0.78,0.624,1.56,1.247,2.34,1.868
	c0.222,0.176,0.443,0.35,0.664,0.525c0.683,0.541,1.364,1.081,2.052,1.616c0.062,0.048,0.109,0.097,0.154,0.146
	c0.008,0.009,0.021,0.018,0.028,0.027c0.019,0.022,0.029,0.046,0.045,0.069c0.027,0.039,0.057,0.077,0.076,0.118
	c0.001,0.003,0.001,0.005,0.003,0.008c0.058,0.129,0.082,0.273,0.081,0.446c-0.002,0.284-0.002,0.568-0.003,0.852
	c-0.004,1.544-0.004,3.088-0.004,4.631c0,0.003,0,0.007,0,0.01c0.001,1.881-0.014,3.761,0.005,5.642
	c0.003,0.228,0.022,0.445,0.059,0.65c0.075,0.418,0.22,0.786,0.426,1.098c0.5,0.76,1.366,1.189,2.496,1.192h1.757v5.761
	c-0.509,0-0.987,0-1.461,0c-0.271,0-0.543,0-0.812-0.003c-1.358-0.014-2.641-0.351-3.814-1.028
	c-1.725-0.996-2.936-2.309-3.639-3.911C3.556,43.985,3.31,42.804,3.291,41.5c-0.027-1.885-0.029-3.771-0.024-5.658
	c0.005-1.73,0.016-3.46,0.022-5.19c0.002-0.373-0.104-0.584-0.442-0.751c-0.357-0.176-0.708-0.364-1.06-0.551
	c-0.134-0.071-0.269-0.139-0.402-0.21c-0.32-0.171-0.64-0.343-0.964-0.505c-0.146-0.073-0.251-0.15-0.32-0.252
	C0.085,28.358,0.078,28.329,0.065,28.303z"/>
</svg>
